inputs/p3_cpu.vcd
$date
	Mon Feb  3 22:01:13 2025
$end

$version
	Synopsys VCS version V-2023.12-SP2-1_Full64
$end

$timescale
	100ps
$end

$comment Csum: 1 8fbf6a6ce2458423 $end


$scope module testbench $end

$scope module verisimpleV $end
$var wire 1 ! clock $end
$var wire 1 " reset $end
$var reg 4 # mem2proc_transaction_tag [3:0] $end
$var reg 4 $ mem2proc_data_tag [3:0] $end
$var reg 2 % proc2mem_command [1:0] $end
$var reg 32 & proc2mem_addr [31:0] $end
$var reg 2 ' proc2mem_size [1:0] $end
$var reg 32 ( if_NPC_dbg [31:0] $end
$var reg 32 ) if_inst_dbg [31:0] $end
$var reg 1 * if_valid_dbg $end
$var reg 32 + if_id_NPC_dbg [31:0] $end
$var reg 32 , if_id_inst_dbg [31:0] $end
$var reg 1 - if_id_valid_dbg $end
$var reg 32 . id_ex_NPC_dbg [31:0] $end
$var reg 32 / id_ex_inst_dbg [31:0] $end
$var reg 1 0 id_ex_valid_dbg $end
$var reg 32 1 ex_mem_NPC_dbg [31:0] $end
$var reg 32 2 ex_mem_inst_dbg [31:0] $end
$var reg 1 3 ex_mem_valid_dbg $end
$var reg 32 4 mem_wb_NPC_dbg [31:0] $end
$var reg 32 5 mem_wb_inst_dbg [31:0] $end
$var reg 1 6 mem_wb_valid_dbg $end
$var reg 1 7 if_id_enable $end
$var reg 1 8 id_ex_enable $end
$var reg 1 9 ex_mem_enable $end
$var reg 1 : mem_wb_enable $end
$var reg 32 ; Imem_addr [31:0] $end
$var reg 32 < Dmem_addr [31:0] $end
$var reg 2 = Dmem_command [1:0] $end
$var reg 2 > Dmem_size [1:0] $end
$var reg 1 ? load_stall $end
$var reg 1 @ squash_pipeline $end
$var reg 1 A if_valid $end
$var reg 1 B start_valid_on_reset $end
$var reg 1 C wb_valid $end
$var wire 1 D rs1_valid $end
$var wire 1 E rs2_valid $end
$var wire 1 F rs1_ex_forward $end
$var wire 1 G rs2_ex_forward $end
$var wire 1 H rs1_mem_forward $end
$var wire 1 I rs2_mem_forward $end
$var reg 64 J mem2proc_data [63:0] $end
$var reg 64 K proc2mem_data [63:0] $end
$var reg 72 L committed_insts [71:0] $end
$var reg 97 M if_packet [96:0] $end
$var reg 97 N if_id_reg [96:0] $end
$var reg 183 O id_packet [182:0] $end
$var reg 183 P id_ex_reg [182:0] $end
$var reg 111 Q ex_packet [110:0] $end
$var reg 111 R ex_mem_reg [110:0] $end
$var reg 73 S mem_packet [72:0] $end
$var reg 73 T mem_wb_reg [72:0] $end
$var reg 64 U Dmem_store_data [63:0] $end
$var reg 72 V wb_packet [71:0] $end

$scope module stage_if_0 $end
$var wire 1 ! clock $end
$var wire 1 " reset $end
$var wire 1 W if_valid $end
$var wire 1 X take_branch $end
$var reg 32 Y branch_target [31:0] $end
$var reg 32 Z Imem_addr [31:0] $end
$var reg 32 [ PC_reg [31:0] $end
$var reg 64 \ Imem_data [63:0] $end
$var reg 97 ] if_packet [96:0] $end
$upscope $end


$scope module stage_id_0 $end
$var wire 1 ! clock $end
$var wire 1 " reset $end
$var wire 1 ^ wb_regfile_en $end
$var reg 5 _ wb_regfile_idx [4:0] $end
$var reg 32 ` wb_regfile_data [31:0] $end
$var reg 1 a has_dest_reg $end
$var reg 97 b if_id_reg [96:0] $end
$var reg 183 c id_packet [182:0] $end

$scope module regfile_0 $end
$var wire 1 ! clock $end
$var reg 5 d read_idx_1 [4:0] $end
$var reg 5 e read_idx_2 [4:0] $end
$var reg 5 f write_idx [4:0] $end
$var wire 1 ^ write_en $end
$var reg 32 g write_data [31:0] $end
$var reg 32 h read_out_1 [31:0] $end
$var reg 32 i read_out_2 [31:0] $end
$var reg 992 j registers [991:0] $end
$upscope $end


$scope module decoder_0 $end
$var reg 1 k valid $end
$var reg 2 l opa_select [1:0] $end
$var reg 3 m opb_select [2:0] $end
$var reg 1 n has_dest $end
$var reg 4 o alu_func [3:0] $end
$var reg 1 p mult $end
$var reg 1 q rd_mem $end
$var reg 1 r wr_mem $end
$var reg 1 s cond_branch $end
$var reg 1 t uncond_branch $end
$var reg 1 u csr_op $end
$var reg 1 v halt $end
$var reg 1 w illegal $end
$var reg 32 x inst [31:0] $end
$upscope $end

$upscope $end


$scope module stage_ex_0 $end
$var reg 32 y alu_result [31:0] $end
$var reg 32 z mult_result [31:0] $end
$var reg 32 { opa_mux_out [31:0] $end
$var reg 32 | opb_mux_out [31:0] $end
$var reg 1 } take_conditional $end
$var reg 183 ~ id_ex_reg [182:0] $end
$var reg 111 "! ex_packet [110:0] $end

$scope module alu_0 $end
$var reg 32 "" opa [31:0] $end
$var reg 32 "# opb [31:0] $end
$var reg 4 "$ alu_func [3:0] $end
$var reg 32 "% result [31:0] $end
$upscope $end


$scope module mult_0 $end
$var reg 32 "& rs1 [31:0] $end
$var reg 32 "' rs2 [31:0] $end
$var reg 3 "( func [2:0] $end
$var reg 32 ") result [31:0] $end
$var reg 64 "* signed_mul [63:0] $end
$var reg 64 "+ mixed_mul [63:0] $end
$var reg 64 ", unsigned_mul [63:0] $end
$upscope $end


$scope module conditional_branch_0 $end
$var reg 32 "- rs1 [31:0] $end
$var reg 32 ". rs2 [31:0] $end
$var wire 3 "/ func [2:0] $end
$var reg 1 "0 take $end
$upscope $end

$upscope $end


$scope module stage_mem_0 $end
$var reg 2 "1 Dmem_command [1:0] $end
$var reg 2 "2 Dmem_size [1:0] $end
$var reg 32 "3 Dmem_addr [31:0] $end
$var reg 32 "4 load_data [31:0] $end
$var reg 111 "5 ex_mem_reg [110:0] $end
$var reg 64 "6 Dmem_load_data [63:0] $end
$var reg 73 "7 mem_packet [72:0] $end
$var reg 64 "8 Dmem_store_data [63:0] $end
$upscope $end


$scope module stage_wb_0 $end
$var reg 73 "9 mem_wb_reg [72:0] $end
$var reg 72 ": wb_packet [71:0] $end
$upscope $end

$upscope $end

$upscope $end

$enddefinitions $end

#0
$dumpvars
19
xn
xa
18
x7
xA
x?
1:
xF
xH
xD
xG
xI
xE
x@
xW
xB
xX
xp
xq
xr
xs
xt
xv
xw
xu
xk
x^
xC
bxx =
bxx >
bxxxxxxxxxxxxxxxxxxxxxxxxxxxxxxxx <
b00000000000000000000000000000000xxxxxxxxxxxxxxxxxxxxxxxxxxxxxxxx U
bxxxxxxxxxxxxxxxxxxxxxxxxxxxxx000 ;
bxxxxxxxxxxxxxxxxxxxxxxxxxxxxxxxxxxxxxxxxxxxxxxxxxxxxxxxxxxxxxxxx \
bxxxxxxxxxxxxxxxxxxxxxxxxxxxxxxxx [
bxxxxxxxxxxxxxxxxxxxxxxxxxxxxxxxx Y
bxxxxxxxxxxxxxxxxxxxxxxxxxxxxxxxxxxxxxxxxxxxxxxxxxxxxxxxxxxxxxxxxxxxxxxxx L
bxxxxxxxxxxxxxxxxxxxxxxxxxxxxxxxx 1
bxxxxxxxxxxxxxxxxxxxxxxxxxxxxxxxx 2
bxxxxxxxxxxxxxxxxxxxxxxxxxxxxxxxxxxxxxxxxxxxxxxxxxxxxxxxxxxxxxxxxxxxxxxxxxxxxxxxxxxxxxxxxxxxxxxxxxxxxxxxxxxxxxxx R
bxxxxxxxxxxxxxxxxxxxxxxxxxxxxxxxxxxxxxxxxxxxxxxxxxxxxxxxxxxxxxxxxxxxxxxxxxxxxxxxxxxxxxxxxxxxxxxxxxxxxxxxxxxxxxxx Q
bxxxxxxxxxxxxxxxxxxxxxxxxxxxxxxxx .
bxxxxxxxxxxxxxxxxxxxxxxxxxxxxxxxx /
bxxxxxxxxxxxxxxxxxxxxxxxxxxxxxxxxxxxxxxxxxxxxxxxxxxxxxxxxxxxxxxxxxxxxxxxxxxxxxxxxxxxxxxxxxxxxxxxxxxxxxxxxxxxxxxxxxxxxxxxxxxxxxxxxxxxxxxxxxxxxxxxxxxxxxxxxxxxxxxxxxxxxxxxxxxxxxxxxxxxxxxx P
bxxxxxxxxxxxxxxxxxxxxxxxxxxxxxxxxxxxxxxxxxxxxxxxxxxxxxxxxxxxxxxxxxxxxxxxxxxxxxxxxxxxxxxxxxxxxxxxxxxxxxxxxxxxxxxxxxxxxxxxxxxxxxxxxxxxxxxxxxxxxxxxxxxxxxxxxxxxxxxxxxxxxxxxxxxxxxxxxxxxxxxx O
bxxxxxxxxxxxxxxxxxxxxxxxxxxxxxxxx (
bxxxxxxxxxxxxxxxxxxxxxxxxxxxxxxxx +
bxxxxxxxxxxxxxxxxxxxxxxxxxxxxxxxx ,
bxxxxxxxxxxxxxxxxxxxxxxxxxxxxxxxxxxxxxxxxxxxxxxxxxxxxxxxxxxxxxxxxxxxxxxxxxxxxxxxxxxxxxxxxxxxxxxxxx N
bxxxxxxxxxxxxxxxxxxxxxxxxxxxxxxxx )
bxxxxxxxxxxxxxxxxxxxxxxxxxxxxxxxxxxxxxxxxxxxxxxxxxxxxxxxxxxxxxxxxxxxxxxxxxxxxxxxxxxxxxxxxxxxxxxxxx M
bxxxxxxxxxxxxxxxxxxxxxxxxxxxxxxxx x
bxxxx $
bxxxxxxxxxxxxxxxxxxxxxxxxxxxxxxxxxxxxxxxxxxxxxxxxxxxxxxxxxxxxxxxx J
bxxxx #
bxxxxxxxxxxxxxxxxxxxxxxxxxxxxxxxxxxxxxxxxxxxxxxxxxxxxxxxxxxxxxxxxxxxxxxxxx S
bxxxxxxxxxxxxxxxxxxxxxxxxxxxxxxxx 4
bxxxxxxxxxxxxxxxxxxxxxxxxxxxxxxxx 5
bxxxxxxxxxxxxxxxxxxxxxxxxxxxxxxxxxxxxxxxxxxxxxxxxxxxxxxxxxxxxxxxxxxxxxxxxx T
bxxxxxxxxxxxxxxxxxxxxxxxxxxxxxxxx &
b00000000000000000000000000000000xxxxxxxxxxxxxxxxxxxxxxxxxxxxxxxx K
bxxxxxxxxxxxxxxxxxxxxxxxxxxxxxxxxxxxxxxxxxxxxxxxxxxxxxxxxxxxxxxxxxxxxxxxxxxxxxxxxxxxxxxxxxxxxxxxxxxxxxxxxxxxxxxxxxxxxxxxxxxxxxxxxxxxxxxxxxxxxxxxxxxxxxxxxxxxxxxxxxxxxxxxxxxxxxxxxxxxxxxxxxxxxxxxxxxxxxxxxxxxxxxxxxxxxxxxxxxxxxxxxxxxxxxxxxxxxxxxxxxxxxxxxxxxxxxxxxxxxxxxxxxxxxxxxxxxxxxxxxxxxxxxxxxxxxxxxxxxxxxxxxxxxxxxxxxxxxxxxxxxxxxxxxxxxxxxxxxxxxxxxxxxxxxxxxxxxxxxxxxxxxxxxxxxxxxxxxxxxxxxxxxxxxxxxxxxxxxxxxxxxxxxxxxxxxxxxxxxxxxxxxxxxxxxxxxxxxxxxxxxxxxxxxxxxxxxxxxxxxxxxxxxxxxxxxxxxxxxxxxxxxxxxxxxxxxxxxxxxxxxxxxxxxxxxxxxxxxxxxxxxxxxxxxxxxxxxxxxxxxxxxxxxxxxxxxxxxxxxxxxxxxxxxxxxxxxxxxxxxxxxxxxxxxxxxxxxxxxxxxxxxxxxxxxxxxxxxxxxxxxxxxxxxxxxxxxxxxxxxxxxxxxxxxxxxxxxxxxxxxxxxxxxxxxxxxxxxxxxxxxxxxxxxxxxxxxxxxxxxxxxxxxxxxxxxxxxxxxxxxxxxxxxxxxxxxxxxxxxxxxxxxxxxxxxxxxxxxxxxxxxxxxxxxxxxxxxxxxxxxxxxxxxxxxxxxxxxxxxxxxxxxxxxxxxxxxxxxxxxxxxxxxxxxxxxxxxxxxxxxxxxxxxxxxxxxxxxxxxxxxxxxxxxxxxxxxxxxxxxxxxxxxxxxxxxxxxxxxxxxxxxxxxxxxxxxxxxxxxxxxxxxxxxxxxxxxxxxxxxxxxxxxxxxxxxxxxxxxxxxxxxxxxxxxxxxxxxxxxxxxxxxxxxxxx j
bxxxxxxxxxxxxxxxxxxxxxxxxxxxxxxxxxxxxxxxxxxxxxxxxxxxxxxxxxxxxxxxxxxxxxxxx V
bxxxxxxxxxxxxxxxxxxxxxxxxxxxxxxxx `
bxxxxx _
bxxxxxxxxxxxxxxxxxxxxxxxxxxxxxxxx g
bxxxxx f
bxxxx o
bxx l
bxxx m
bxx %
bxx '
bxxxxxxxxxxxxxxxxxxxxxxxxxxxxxxxxxxxxxxxxxxxxxxxxxxxxxxxxxxxxxxxxxxxxxxxxxxxxxxxxxxxxxxxxxxxxxxxxxxxxxxxxxxxxxxxxxxxxxxxxxxxxxxxxxxxxxxxxxxxxxxxxxxxxxxxxxxxxxxxxxxxxxxxxxxxxxxxxxxxxxxx c
bxxxxxxxxxxxxxxxxxxxxxxxxxxxxxxxxxxxxxxxxxxxxxxxxxxxxxxxxxxxxxxxxxxxxxxxxxxxxxxxxxxxxxxxxxxxxxxxxx b
bxxxxxxxxxxxxxxxxxxxxxxxxxxxxx000 Z
bxxxxxxxxxxxxxxxxxxxxxxxxxxxxxxxxxxxxxxxxxxxxxxxxxxxxxxxxxxxxxxxxxxxxxxxxxxxxxxxxxxxxxxxxxxxxxxxxx ]
bxxxxxxxxxxxxxxxxxxxxxxxxxxxxxxxx h
bxxxxxxxxxxxxxxxxxxxxxxxxxxxxxxxx i
bxxxxx e
bxxxxx d
x"0
x}
bxxxxxxxxxxxxxxxxxxxxxxxxxxxxxxxx y
bxxxxxxxxxxxxxxxxxxxxxxxxxxxxxxxxxxxxxxxxxxxxxxxxxxxxxxxxxxxxxxxxxxxxxxxxxxxxxxxxxxxxxxxxxxxxxxxxxxxxxxxxxxxxxxx "!
bxxxxxxxxxxxxxxxxxxxxxxxxxxxxxxxxxxxxxxxxxxxxxxxxxxxxxxxxxxxxxxxxxxxxxxxxxxxxxxxxxxxxxxxxxxxxxxxxxxxxxxxxxxxxxxxxxxxxxxxxxxxxxxxxxxxxxxxxxxxxxxxxxxxxxxxxxxxxxxxxxxxxxxxxxxxxxxxxxxxxxxx ~
bxxxxxxxxxxxxxxxxxxxxxxxxxxxxxxxx z
bxxxxxxxxxxxxxxxxxxxxxxxxxxxxxxxx ""
bxxxxxxxxxxxxxxxxxxxxxxxxxxxxxxxx {
bxxxxxxxxxxxxxxxxxxxxxxxxxxxxxxxx "#
bxxxxxxxxxxxxxxxxxxxxxxxxxxxxxxxx |
bxxxxxxxxxxxxxxxxxxxxxxxxxxxxxxxx "%
bxxxx "$
bxxx "/
bxxx "(
bxxxxxxxxxxxxxxxxxxxxxxxxxxxxxxxxxxxxxxxxxxxxxxxxxxxxxxxxxxxxxxxx "+
bxxxxxxxxxxxxxxxxxxxxxxxxxxxxxxxx ")
bxxxxxxxxxxxxxxxxxxxxxxxxxxxxxxxxxxxxxxxxxxxxxxxxxxxxxxxxxxxxxxxx "*
bxxxxxxxxxxxxxxxxxxxxxxxxxxxxxxxx "&
bxxxxxxxxxxxxxxxxxxxxxxxxxxxxxxxx "'
bxxxxxxxxxxxxxxxxxxxxxxxxxxxxxxxx "-
bxxxxxxxxxxxxxxxxxxxxxxxxxxxxxxxx ".
bxxxxxxxxxxxxxxxxxxxxxxxxxxxxxxxxxxxxxxxxxxxxxxxxxxxxxxxxxxxxxxxx ",
bxx "1
bxx "2
bxxxxxxxxxxxxxxxxxxxxxxxxxxxxxxxx "3
bxxxxxxxxxxxxxxxxxxxxxxxxxxxxxxxxxxxxxxxxxxxxxxxxxxxxxxxxxxxxxxxx "6
b00000000000000000000000000000000xxxxxxxxxxxxxxxxxxxxxxxxxxxxxxxx "8
bxxxxxxxxxxxxxxxxxxxxxxxxxxxxxxxxxxxxxxxxxxxxxxxxxxxxxxxxxxxxxxxxxxxxxxxxxxxxxxxxxxxxxxxxxxxxxxxxxxxxxxxxxxxxxxx "5
bxxxxxxxxxxxxxxxxxxxxxxxxxxxxxxxx "4
bxxxxxxxxxxxxxxxxxxxxxxxxxxxxxxxxxxxxxxxxxxxxxxxxxxxxxxxxxxxxxxxxxxxxxxxxx "7
bxxxxxxxxxxxxxxxxxxxxxxxxxxxxxxxxxxxxxxxxxxxxxxxxxxxxxxxxxxxxxxxxxxxxxxxxx "9
bxxxxxxxxxxxxxxxxxxxxxxxxxxxxxxxxxxxxxxxxxxxxxxxxxxxxxxxxxxxxxxxxxxxxxxxx ":
0!
x*
x-
x0
x3
x6
1"
$end
#150
1!
b0000 #
b0000 $
1B
b0000000000000000000000000001001100000000000000000000000000000000000000000000000000000000000000000 N
b0000000000000000000000000001001100000000000000000000000000000000000000000000000000000000000000000 b
b00000 e
b00000 d
0k
b00000000000000000000000000010011 x
0-
b00000000000000000000000000010011 ,
b00000000000000000000000000000000 +
b000000000000000000000000000100110000000000000000000000000000000000000000000000000000000000000000000000000000000000000000000000000000000000000000000000000000000000000000000000000000000 P
b000000000000000000000000000100110000000000000000000000000000000000000000000000000000000000000000000000000000000000000000000000000000000000000000000000000000000000000000000000000000000 ~
b00000000000000000000000000000000 "-
b00000000000000000000000000000000 ".
b00000000000000000000000000000000 "&
b00000000000000000000000000000000 "'
b0000000000000000000000000000000000000000000000000000000000000000 "*
b0000000000000000000000000000000000000000000000000000000000000000 "+
b0000000000000000000000000000000000000000000000000000000000000000 ",
b000 "/
b000 "(
b0000 "$
00
b00000000000000000000000000010011 /
b00000000000000000000000000000000 .
b00000000000000000000000000010011 2
b000000000000000000000000000000000000000000000000000000000000000000000000000000000000000000000000000000000000000 R
b000000000000000000000000000000000000000000000000000000000000000000000000000000000000000000000000000000000000000 "5
b0000000000000000000000000000000000000000000000000000000000000000 "8
b00000000000000000000000000000000 "3
b00 "2
b00000000000000000000000000000000 Y
0X
03
b00000000000000000000000000000000 1
0@
b00000000000000000000000000010011 5
b0000000000000000000000000000000000000000000000000000000000000000000000000 T
b0000000000000000000000000000000000000000000000000000000000000000000000000 "9
06
b00000000000000000000000000000000 4
0C
b00000000000000000000000000000000 [
b00000000000000000000000000000000 Z
b00000000000000000000000000000000 ;
b00000000000000000000000000000000 i
b00000000000000000000000000000000 h
0p
0q
0r
0s
0t
0v
0w
0u
0n
0a
b0000 o
b000 m
b00 l
b000000000000000000000000000100110000000000000000000000000000000000000000000000000000000000000000000000000000000000000000000000000000000000000000000000000000000000000000000000000000000 O
b000000000000000000000000000100110000000000000000000000000000000000000000000000000000000000000000000000000000000000000000000000000000000000000000000000000000000000000000000000000000000 c
b00000000000000000000000000000000 |
b00000000000000000000000000000000 "#
b00000000000000000000000000000000 {
b00000000000000000000000000000000 ""
1"0
1}
b00000000000000000000000000000000 ")
b00000000000000000000000000000000 z
b00000000000000000000000000000000 "%
b00000000000000000000000000000000 y
b0000000000000000000000000000000000000000000000000000000000000000 U
b00000000000000000000000000000000 <
b00 >
b000000000000000000000000000000000000000000000000000000000000000000000000000000000000000000000000000000000000000 "!
b000000000000000000000000000000000000000000000000000000000000000000000000000000000000000000000000000000000000000 Q
b0000000000000000000000000000000000000000000000000000000000000000000000000 "7
b0000000000000000000000000000000000000000000000000000000000000000000000000 S
b000000000000000000000000000000000000000000000000000000000000000000000000 ":
b000000000000000000000000000000000000000000000000000000000000000000000000 V
b00000000000000000000000000000000 `
b00000000000000000000000000000000 g
b00000 _
b00000 f
0^
b000000000000000000000000000000000000000000000000000000000000000000000000 L
bxxxxxxxxxxxxxxxxxxxxxxxxxxxxxxxx0000000000000000000000000000000000000000000000000000000000000100x ]
b00 "1
b00 =
bxxxxxxxxxxxxxxxxxxxxxxxxxxxxxxxx0000000000000000000000000000000000000000000000000000000000000100x M
b00000000000000000000000000000100 (
b0000000000000000000000000000000000000000000000000000000000000000 K
b11 '
b00000000000000000000000000000000 &
b01 %
0I
0G
0H
0F
1E
1D
0?
17
1A
1W
bxxxxxxxxxxxxxxxxxxxxxxxxxxxxxxxx00000000000000000000000000000000000000000000000000000000000001001 M
1*
bxxxxxxxxxxxxxxxxxxxxxxxxxxxxxxxx00000000000000000000000000000000000000000000000000000000000001001 ]
#300
0!
b0001 #
b0000000000000000000000000000000000000000000000000000000000000000 J
b0000000000000000000000000000000000000000000000000000000000000000 "6
b0000000000000000000000000000000000000000000000000000000000000000 \
b0001 $
b00000000000000000000000000000000 "4
b0000000000000000000000000000000000000000000000000000000000000000000000000000000000000000000001001 ]
b0000000000000000000000000000000000000000000000000000000000000000000000000000000000000000000001001 M
b00000000000000000000000000000000 )
#450
1!
#600
0!
b0000010111010000000000001001001100001001100000000000000000010011 J
b0000010111010000000000001001001100001001100000000000000000010011 "6
b0000010111010000000000001001001100001001100000000000000000010011 \
b00000000000000000000000000010011 "4
b0000100110000000000000000001001100000000000000000000000000000000000000000000000000000000000001001 ]
b0000100110000000000000000001001100000000000000000000000000000000000000000000000000000000000001001 M
b00001001100000000000000000010011 )
#750
1!
#900
0!
#1050
1!
#1060
0"
#1200
0!
#1350
1!
0B
b0000100110000000000000000001001100000000000000000000000000000000000000000000000000000000000001001 N
b0000100110000000000000000001001100000000000000000000000000000000000000000000000000000000000001001 b
b11000 e
1k
b00001001100000000000000000010011 x
1-
b00001001100000000000000000010011 ,
b00000000000000000000000000000100 +
b00000000000000000000000000000100 [
bxxxxxxxxxxxxxxxxxxxxxxxxxxxxxxxx i
1n
1a
b001 m
b00001001100000000000000000010011000000000000000000000000000000000000000000000000000000000000010000000000000000000000000000000000xxxxxxxxxxxxxxxxxxxxxxxxxxxxxxxx00001000000000000000001 O
b00001001100000000000000000010011000000000000000000000000000000000000000000000000000000000000010000000000000000000000000000000000xxxxxxxxxxxxxxxxxxxxxxxxxxxxxxxx00001000000000000000001 c
b0000100110000000000000000001001100000000000000000000000000000100000000000000000000000000000010001 M
b00000000000000000000000000001000 (
b0000010111010000000000001001001100000000000000000000000000000100000000000000000000000000000010001 ]
0E
b0000010111010000000000001001001100000000000000000000000000000100000000000000000000000000000010001 M
b00000101110100000000000010010011 )
#1500
0!
#1650
1!
b0000010111010000000000001001001100000000000000000000000000000100000000000000000000000000000010001 N
b0000010111010000000000001001001100000000000000000000000000000100000000000000000000000000000010001 b
b11101 e
b00000101110100000000000010010011 x
b00000101110100000000000010010011 ,
b00000000000000000000000000001000 +
b00001001100000000000000000010011000000000000000000000000000000000000000000000000000000000000010000000000000000000000000000000000xxxxxxxxxxxxxxxxxxxxxxxxxxxxxxxx00001000000000000000001 P
b00001001100000000000000000010011000000000000000000000000000000000000000000000000000000000000010000000000000000000000000000000000xxxxxxxxxxxxxxxxxxxxxxxxxxxxxxxx00001000000000000000001 ~
bxxxxxxxxxxxxxxxxxxxxxxxxxxxxxxxx ".
bxxxxxxxxxxxxxxxxxxxxxxxxxxxxxxxx "'
bxxxxxxxxxxxxxxxxxxxxxxxxxxxxxxxxxxxxxxxxxxxxxxxxxxxxxxxxxxxxxxxx "*
bxxxxxxxxxxxxxxxxxxxxxxxxxxxxxxxxxxxxxxxxxxxxxxxxxxxxxxxxxxxxxxxx ",
bxxxxxxxxxxxxxxxxxxxxxxxxxxxxxxxxxxxxxxxxxxxxxxxxxxxxxxxxxxxxxxxx "+
10
b00001001100000000000000000010011 /
b00000000000000000000000000000100 .
b00000000000000000000000000001000 [
b00000000000000000000000000001000 Z
b00000000000000000000000000001000 ;
b00000101110100000000000010010011000000000000000000000000000001000000000000000000000000000000100000000000000000000000000000000000xxxxxxxxxxxxxxxxxxxxxxxxxxxxxxxx00001000010000000000001 O
b00000101110100000000000010010011000000000000000000000000000001000000000000000000000000000000100000000000000000000000000000000000xxxxxxxxxxxxxxxxxxxxxxxxxxxxxxxx00001000010000000000001 c
b00000000000000000000000010011000 |
b00000000000000000000000010011000 "#
x"0
x}
bxxxxxxxxxxxxxxxxxxxxxxxxxxxxxxxx ")
bxxxxxxxxxxxxxxxxxxxxxxxxxxxxxxxx z
b00000000000000000000000000000000000000000000000000000000000001000xxxxxxxxxxxxxxxxxxxxxxxxxxxxxxxx00000000000001 "!
b00000000000000000000000000000000000000000000000000000000000001000xxxxxxxxxxxxxxxxxxxxxxxxxxxxxxxx00000000000001 Q
b0000100110000000000000000001001100000000000000000000000000001000000000000000000000000000000011001 ]
b0000100110000000000000000001001100000000000000000000000000001000000000000000000000000000000011001 M
b00001001100000000000000000010011 )
b00000000000000000000000000001100 (
b00000000000000000000000000001000 &
b00000000000000000000000010011000 "%
b00000000000000000000000010011000 y
b00000000000000000000000010011000000000000000000000000000000001000xxxxxxxxxxxxxxxxxxxxxxxxxxxxxxxx00000000000001 "!
b00000000000000000000000010011000000000000000000000000000000001000xxxxxxxxxxxxxxxxxxxxxxxxxxxxxxxx00000000000001 Q
#1800
0!
b0000000000000000001000000000001100000000001100000000000110010011 J
b0000000000000000001000000000001100000000001100000000000110010011 "6
b0000000000000000001000000000001100000000001100000000000110010011 \
b11111111111111111111111110010011 "4
b0000000000110000000000011001001100000000000000000000000000001000000000000000000000000000000011001 ]
b0000000000110000000000011001001100000000000000000000000000001000000000000000000000000000000011001 M
b00000000001100000000000110010011 )
#1950
1!
b0000000000110000000000011001001100000000000000000000000000001000000000000000000000000000000011001 N
b0000000000110000000000011001001100000000000000000000000000001000000000000000000000000000000011001 b
b00011 e
b00000000001100000000000110010011 x
b00000000001100000000000110010011 ,
b00000000000000000000000000001100 +
b00000101110100000000000010010011000000000000000000000000000001000000000000000000000000000000100000000000000000000000000000000000xxxxxxxxxxxxxxxxxxxxxxxxxxxxxxxx00001000010000000000001 P
b00000101110100000000000010010011000000000000000000000000000001000000000000000000000000000000100000000000000000000000000000000000xxxxxxxxxxxxxxxxxxxxxxxxxxxxxxxx00001000010000000000001 ~
b00000101110100000000000010010011 /
b00000000000000000000000000001000 .
b00001001100000000000000000010011 2
b00000000000000000000000010011000000000000000000000000000000001000xxxxxxxxxxxxxxxxxxxxxxxxxxxxxxxx00000000000001 R
b00000000000000000000000010011000000000000000000000000000000001000xxxxxxxxxxxxxxxxxxxxxxxxxxxxxxxx00000000000001 "5
b00000000000000000000000000000000xxxxxxxxxxxxxxxxxxxxxxxxxxxxxxxx "8
b00000000000000000000000010011000 "3
b00000000000000000000000010011000 Y
13
b00000000000000000000000000000100 1
b00000000000000000000000000001100 [
b00000000001100000000000110010011000000000000000000000000000010000000000000000000000000000000110000000000000000000000000000000000xxxxxxxxxxxxxxxxxxxxxxxxxxxxxxxx00001000110000000000001 O
b00000000001100000000000110010011000000000000000000000000000010000000000000000000000000000000110000000000000000000000000000000000xxxxxxxxxxxxxxxxxxxxxxxxxxxxxxxx00001000110000000000001 c
b00000000000000000000000001011101 |
b00000000000000000000000001011101 "#
b00000000000000000000000000000000xxxxxxxxxxxxxxxxxxxxxxxxxxxxxxxx U
b00000000000000000000000010011000 <
b00000000000000000000000010011000000000000000000000000000000010000xxxxxxxxxxxxxxxxxxxxxxxxxxxxxxxx00000010000001 "!
b00000000000000000000000010011000000000000000000000000000000010000xxxxxxxxxxxxxxxxxxxxxxxxxxxxxxxx00000010000001 Q
b0000000000000000000000001001100000000000000000000000000000000100000000001 "7
b0000000000000000000000001001100000000000000000000000000000000100000000001 S
b0000000000000000001000000000001100000000000000000000000000001100000000000000000000000000000100001 ]
b0000000000000000001000000000001100000000000000000000000000001100000000000000000000000000000100001 M
b00000000000000000010000000000011 )
b00000000000000000000000000010000 (
b00000000000000000000000001011101 "%
b00000000000000000000000001011101 y
b00000000000000000000000000000000xxxxxxxxxxxxxxxxxxxxxxxxxxxxxxxx K
b00000000000000000000000001011101000000000000000000000000000010000xxxxxxxxxxxxxxxxxxxxxxxxxxxxxxxx00000010000001 "!
b00000000000000000000000001011101000000000000000000000000000010000xxxxxxxxxxxxxxxxxxxxxxxxxxxxxxxx00000010000001 Q
#2100
0!
